…
-   There were 106 SSNs that appeared twice in the crosswalk file – see
    the firse several examples below
    -   Each of these SSNs have two different BeneIDs (below shows only
        the last 4 digits of SSN)

<!-- -->

    ## # A tibble: 212 × 5
    ##    SSN_hidden BENE_ID         SSN_MATCH SEX_MATCH DOB_MATCH
    ##    <chr>      <chr>               <dbl>     <dbl>     <dbl>
    ##  1 4697       2222222H1yyJxTJ         1         1         1
    ##  2 4697       222222jygfg2J2H         1         1         1
    ##  3 8398       222222J1jyyJxx1         1         1         1
    ##  4 8398       222222yfxHyTxTx         1         1         1
    ##  5 4196       222222JTf212ff2         1         1         1
    ##  6 4196       222222Jj2yTgj2j         1         1         1
    ##  7 2671       222222221yTTxJ2         1         1         1
    ##  8 2671       2222222g2gTyx2y         1         1         1
    ##  9 0132       22222222THxggHH         1         1         1
    ## 10 0132       2222222HgTJJJxj         1         1         1
    ## # … with 202 more rows
…
